[gd_scene load_steps=5 format=2]

[ext_resource path="res://player/spear/SpearNode.gd" type="Script" id=1]
[ext_resource path="res://player/arrow/arrowxd.png" type="Texture" id=2]
[ext_resource path="res://player/common/trail/Trail.tscn" type="PackedScene" id=3]

[sub_resource type="CapsuleShape2D" id=1]
radius = 2.0
height = 2.0

[node name="Arrow" type="KinematicBody2D"]
script = ExtResource( 1 )

[node name="Trail" parent="." instance=ExtResource( 3 )]
position = Vector2( 2, 0 )

[node name="Arrowxd" type="Sprite" parent="."]
position = Vector2( 1, 0 )
rotation = 1.5708
texture = ExtResource( 2 )

[node name="CollisionShape2D" type="CollisionShape2D" parent="."]
position = Vector2( 5, 0 )
rotation = 1.5708
shape = SubResource( 1 )
