[gd_scene load_steps=25 format=2]

[ext_resource path="res://player/Player.tscn" type="PackedScene" id=1]
[ext_resource path="res://environment/walls/walls.png" type="Texture" id=2]
[ext_resource path="res://environment/floor.png" type="Texture" id=3]
[ext_resource path="res://environment/walls/new_floor.png" type="Texture" id=4]
[ext_resource path="res://enemies/target_dummy/TargetDummy.tscn" type="PackedScene" id=5]
[ext_resource path="res://enemies/zombie/zombie.tscn" type="PackedScene" id=6]
[ext_resource path="res://default_env.tres" type="Environment" id=7]
[ext_resource path="res://player/gem/GemstoneNode.tscn" type="PackedScene" id=8]

[sub_resource type="CanvasItemMaterial" id=27]
light_mode = 2

[sub_resource type="NavigationPolygon" id=14]
vertices = PoolVector2Array( 0, 0, 16, 0, 16, 16, 0, 16 )
polygons = [ PoolIntArray( 0, 1, 2, 3 ) ]
outlines = [ PoolVector2Array( 0, 0, 16, 0, 16, 16, 0, 16 ) ]

[sub_resource type="NavigationPolygon" id=15]
vertices = PoolVector2Array( 0, 0, 16, 0, 16, 16, 0, 16 )
polygons = [ PoolIntArray( 0, 1, 2, 3 ) ]
outlines = [ PoolVector2Array( 0, 0, 16, 0, 16, 16, 0, 16 ) ]

[sub_resource type="ConvexPolygonShape2D" id=1]
points = PoolVector2Array( 3.9375, 16, 3.9375, 4.0625, 15.9375, 3.9375, 16, 12.0938, 12.0625, 12.125, 12.0625, 15.9375 )

[sub_resource type="ConvexPolygonShape2D" id=2]
points = PoolVector2Array( 15.9375, 11.9688, 0, 11.9688, 0, 3.96875, 15.9375, 3.96875 )

[sub_resource type="ConvexPolygonShape2D" id=3]
points = PoolVector2Array( 0, 3.90625, 0.125, 3.96875, 12.0625, 4.09375, 12, 15.9688, 4, 15.9688, 4, 11.9062, 0, 12 )

[sub_resource type="ConvexPolygonShape2D" id=4]
points = PoolVector2Array( 12.0625, 0.0625, 11.9375, 11.9375, 0.0625, 12, 0.0625, 3.875, 3.875, 3.875, 3.875, 0 )

[sub_resource type="ConvexPolygonShape2D" id=5]
points = PoolVector2Array( 12, 0, 12, 3.9375, 15.9375, 3.875, 16, 12.0625, 4.125, 11.875, 4.0625, 0 )

[sub_resource type="ConvexPolygonShape2D" id=6]
points = PoolVector2Array( 12.125, 16, 4, 16, 4, 0.1875, 12.125, 0.1875 )

[sub_resource type="ConvexPolygonShape2D" id=7]
points = PoolVector2Array( 11.9375, 9.9375, 3.875, 9.9375, 3.875, 0.1875, 11.9375, 0.1875 )

[sub_resource type="ConvexPolygonShape2D" id=8]
points = PoolVector2Array( 10, 12.125, 0, 12.125, 0, 4.125, 10, 4.0625 )

[sub_resource type="ConvexPolygonShape2D" id=9]
points = PoolVector2Array( 11.9375, 16, 4, 16, 4, 6.0625, 11.9375, 6.0625 )

[sub_resource type="ConvexPolygonShape2D" id=10]
points = PoolVector2Array( 16, 11.9375, 6.0625, 11.9375, 6, 4, 16, 4.1875 )

[sub_resource type="TileSet" id=11]
0/name = "walls"
0/texture = ExtResource( 2 )
0/tex_offset = Vector2( 0, 0 )
0/modulate = Color( 1, 1, 1, 1 )
0/region = Rect2( 0, 0, 64, 48 )
0/tile_mode = 2
0/autotile/icon_coordinate = Vector2( 1, 1 )
0/autotile/tile_size = Vector2( 16, 16 )
0/autotile/spacing = 0
0/autotile/occluder_map = [  ]
0/autotile/navpoly_map = [ Vector2( 3, 0 ), SubResource( 14 ), Vector2( 3, 1 ), SubResource( 15 ) ]
0/autotile/priority_map = [  ]
0/autotile/z_index_map = [  ]
0/occluder_offset = Vector2( 0, 0 )
0/navigation_offset = Vector2( 0, 0 )
0/shape_offset = Vector2( 0, 0 )
0/shape_transform = Transform2D( 1, 0, 0, 1, 0, 0 )
0/shape = SubResource( 1 )
0/shape_one_way = false
0/shape_one_way_margin = 1.0
0/shapes = [ {
"autotile_coord": Vector2( 0, 0 ),
"one_way": false,
"one_way_margin": 1.0,
"shape": SubResource( 1 ),
"shape_transform": Transform2D( 1, 0, 0, 1, 0, 0 )
}, {
"autotile_coord": Vector2( 1, 0 ),
"one_way": false,
"one_way_margin": 1.0,
"shape": SubResource( 2 ),
"shape_transform": Transform2D( 1, 0, 0, 1, 0, 0 )
}, {
"autotile_coord": Vector2( 2, 0 ),
"one_way": false,
"one_way_margin": 1.0,
"shape": SubResource( 3 ),
"shape_transform": Transform2D( 1, 0, 0, 1, 0, 0 )
}, {
"autotile_coord": Vector2( 2, 1 ),
"one_way": false,
"one_way_margin": 1.0,
"shape": SubResource( 4 ),
"shape_transform": Transform2D( 1, 0, 0, 1, 0, 0 )
}, {
"autotile_coord": Vector2( 1, 1 ),
"one_way": false,
"one_way_margin": 1.0,
"shape": SubResource( 5 ),
"shape_transform": Transform2D( 1, 0, 0, 1, 0, 0 )
}, {
"autotile_coord": Vector2( 0, 1 ),
"one_way": false,
"one_way_margin": 1.0,
"shape": SubResource( 6 ),
"shape_transform": Transform2D( 1, 0, 0, 1, 0, 0 )
}, {
"autotile_coord": Vector2( 0, 2 ),
"one_way": false,
"one_way_margin": 1.0,
"shape": SubResource( 7 ),
"shape_transform": Transform2D( 1, 0, 0, 1, 0, 0 )
}, {
"autotile_coord": Vector2( 1, 2 ),
"one_way": false,
"one_way_margin": 1.0,
"shape": SubResource( 8 ),
"shape_transform": Transform2D( 1, 0, 0, 1, 0, 0 )
}, {
"autotile_coord": Vector2( 2, 2 ),
"one_way": false,
"one_way_margin": 1.0,
"shape": SubResource( 9 ),
"shape_transform": Transform2D( 1, 0, 0, 1, 0, 0 )
}, {
"autotile_coord": Vector2( 3, 2 ),
"one_way": false,
"one_way_margin": 1.0,
"shape": SubResource( 10 ),
"shape_transform": Transform2D( 1, 0, 0, 1, 0, 0 )
} ]
0/z_index = 0

[sub_resource type="CanvasItemMaterial" id=26]
light_mode = 2

[sub_resource type="TileSet" id=12]
0/name = "floor.png 0"
0/texture = ExtResource( 3 )
0/tex_offset = Vector2( 0, 0 )
0/modulate = Color( 1, 1, 1, 1 )
0/region = Rect2( 0, 0, 32, 32 )
0/tile_mode = 0
0/occluder_offset = Vector2( 0, 0 )
0/navigation_offset = Vector2( 0, 0 )
0/shape_offset = Vector2( 0, 0 )
0/shape_transform = Transform2D( 1, 0, 0, 1, 0, 0 )
0/shape_one_way = false
0/shape_one_way_margin = 0.0
0/shapes = [  ]
0/z_index = 0
1/name = "floor autotile"
1/texture = ExtResource( 4 )
1/tex_offset = Vector2( 0, 0 )
1/modulate = Color( 1, 1, 1, 1 )
1/region = Rect2( 0, 0, 160, 96 )
1/tile_mode = 1
1/autotile/bitmask_mode = 0
1/autotile/bitmask_flags = [ Vector2( 0, 0 ), 325, Vector2( 0, 1 ), 5, Vector2( 0, 2 ), 320, Vector2( 1, 0 ), 65, Vector2( 1, 1 ), 260, Vector2( 1, 2 ), 324, Vector2( 2, 0 ), 1, Vector2( 2, 1 ), 256, Vector2( 2, 2 ), 321, Vector2( 3, 0 ), 4, Vector2( 3, 1 ), 257, Vector2( 3, 2 ), 261, Vector2( 4, 0 ), 64, Vector2( 4, 1 ), 68, Vector2( 4, 2 ), 69 ]
1/autotile/icon_coordinate = Vector2( 0, 0 )
1/autotile/tile_size = Vector2( 32, 32 )
1/autotile/spacing = 0
1/autotile/occluder_map = [  ]
1/autotile/navpoly_map = [  ]
1/autotile/priority_map = [  ]
1/autotile/z_index_map = [  ]
1/occluder_offset = Vector2( 0, 0 )
1/navigation_offset = Vector2( 0, 0 )
1/shape_offset = Vector2( 0, 0 )
1/shape_transform = Transform2D( 1, 0, 0, 1, 0, 0 )
1/shape_one_way = false
1/shape_one_way_margin = 0.0
1/shapes = [  ]
1/z_index = 0

[node name="World" type="Node2D"]

[node name="WallTileMap" type="TileMap" parent="."]
material = SubResource( 27 )
scale = Vector2( 4, 4 )
z_index = 1
tile_set = SubResource( 11 )
cell_size = Vector2( 16, 16 )
bake_navigation = true
format = 1
tile_data = PoolIntArray( -262146, 0, 0, -262145, 0, 1, -327680, 0, 1, -327679, 0, 1, -327678, 0, 1, -327677, 0, 1, -327676, 0, 1, -327675, 0, 1, -327674, 0, 1, -327673, 0, 1, -327672, 0, 1, -327671, 0, 1, -327670, 0, 1, -327669, 0, 1, -327668, 0, 1, -327667, 0, 1, -327666, 0, 1, -327665, 0, 1, -327664, 0, 2, -196610, 0, 65536, -196609, 0, 3, -262144, 0, 3, -262143, 0, 3, -262142, 0, 3, -262141, 0, 3, -262140, 0, 3, -262139, 0, 3, -262138, 0, 3, -262137, 0, 3, -262136, 0, 3, -262135, 0, 3, -262134, 0, 3, -262133, 0, 3, -262132, 0, 3, -262131, 0, 3, -262130, 0, 3, -262129, 0, 3, -262128, 0, 65536, -131074, 0, 65536, -131073, 0, 3, -196608, 0, 3, -196607, 0, 3, -196606, 0, 3, -196605, 0, 3, -196604, 0, 3, -196603, 0, 3, -196602, 0, 3, -196601, 0, 3, -196600, 0, 3, -196599, 0, 3, -196598, 0, 3, -196597, 0, 3, -196596, 0, 3, -196595, 0, 3, -196594, 0, 3, -196593, 0, 3, -196592, 0, 65536, -65538, 0, 65536, -65537, 0, 3, -131072, 0, 3, -131071, 0, 3, -131070, 0, 3, -131069, 0, 3, -131068, 0, 3, -131067, 0, 3, -131066, 0, 3, -131065, 0, 3, -131064, 0, 3, -131063, 0, 3, -131062, 0, 3, -131061, 0, 3, -131060, 0, 3, -131059, 0, 3, -131058, 0, 3, -131057, 0, 3, -131056, 0, 65536, -2, 0, 65536, -1, 0, 3, -65536, 0, 3, -65535, 0, 3, -65534, 0, 3, -65533, 0, 3, -65532, 0, 3, -65531, 0, 3, -65530, 0, 3, -65529, 0, 3, -65528, 0, 3, -65527, 0, 3, -65526, 0, 3, -65525, 0, 3, -65524, 0, 3, -65523, 0, 3, -65522, 0, 3, -65521, 0, 3, -65520, 0, 65536, 65534, 0, 65536, 65535, 0, 3, 0, 0, 3, 1, 0, 3, 2, 0, 3, 3, 0, 3, 4, 0, 3, 5, 0, 3, 6, 0, 0, 7, 0, 2, 8, 0, 3, 9, 0, 3, 10, 0, 3, 11, 0, 3, 12, 0, 3, 13, 0, 3, 14, 0, 3, 15, 0, 3, 16, 0, 65536, 131070, 0, 65536, 131071, 0, 3, 65536, 0, 3, 65537, 0, 3, 65538, 0, 3, 65539, 0, 3, 65540, 0, 3, 65541, 0, 3, 65542, 0, 65537, 65543, 0, 65538, 65544, 0, 3, 65545, 0, 3, 65546, 0, 3, 65547, 0, 3, 65548, 0, 3, 65549, 0, 3, 65550, 0, 3, 65551, 0, 3, 65552, 0, 65536, 196606, 0, 65536, 196607, 0, 3, 131072, 0, 3, 131073, 0, 3, 131074, 0, 3, 131075, 0, 3, 131076, 0, 3, 131077, 0, 3, 131078, 0, 3, 131079, 0, 3, 131080, 0, 3, 131081, 0, 3, 131082, 0, 3, 131083, 0, 3, 131084, 0, 3, 131085, 0, 3, 131086, 0, 3, 131087, 0, 3, 131088, 0, 65536, 262142, 0, 65536, 262143, 0, 3, 196608, 0, 3, 196609, 0, 3, 196610, 0, 3, 196611, 0, 3, 196612, 0, 3, 196613, 0, 3, 196614, 0, 3, 196615, 0, 3, 196616, 0, 3, 196617, 0, 3, 196618, 0, 3, 196619, 0, 3, 196620, 0, 3, 196621, 0, 3, 196622, 0, 3, 196623, 0, 3, 196624, 0, 65536, 327678, 0, 65536, 327679, 0, 3, 262144, 0, 3, 262145, 0, 3, 262146, 0, 3, 262147, 0, 3, 262148, 0, 3, 262149, 0, 3, 262150, 0, 3, 262151, 0, 3, 262152, 0, 3, 262153, 0, 3, 262154, 0, 3, 262155, 0, 3, 262156, 0, 3, 262157, 0, 3, 262158, 0, 3, 262159, 0, 3, 262160, 0, 65536, 393214, 0, 65536, 393215, 0, 3, 327680, 0, 3, 327681, 0, 3, 327682, 0, 3, 327683, 0, 3, 327684, 0, 3, 327685, 0, 3, 327686, 0, 3, 327687, 0, 3, 327688, 0, 3, 327689, 0, 3, 327690, 0, 3, 327691, 0, 3, 327692, 0, 3, 327693, 0, 3, 327694, 0, 3, 327695, 0, 3, 327696, 0, 65536, 458750, 0, 65536, 458751, 0, 3, 393216, 0, 3, 393217, 0, 3, 393218, 0, 3, 393219, 0, 3, 393220, 0, 3, 393221, 0, 3, 393222, 0, 3, 393223, 0, 3, 393224, 0, 3, 393225, 0, 3, 393226, 0, 3, 393227, 0, 3, 393228, 0, 3, 393229, 0, 3, 393230, 0, 3, 393231, 0, 3, 393232, 0, 131072, 524286, 0, 65536, 524287, 0, 3, 458752, 0, 3, 458753, 0, 3, 458754, 0, 3, 458755, 0, 3, 458756, 0, 3, 458757, 0, 3, 458758, 0, 3, 458759, 0, 3, 458760, 0, 3, 458761, 0, 3, 458762, 0, 3, 458763, 0, 3, 458764, 0, 3, 458765, 0, 3, 458766, 0, 3, 458767, 0, 3, 458768, 0, 3, 589822, 0, 65536, 589823, 0, 3, 524288, 0, 3, 524289, 0, 3, 524290, 0, 3, 524291, 0, 3, 524292, 0, 3, 524293, 0, 3, 524294, 0, 3, 524295, 0, 3, 524296, 0, 3, 524297, 0, 3, 524298, 0, 3, 524299, 0, 3, 524300, 0, 3, 524301, 0, 3, 524302, 0, 3, 524303, 0, 3, 524304, 0, 131074, 655358, 0, 65537, 655359, 0, 1, 589824, 0, 1, 589825, 0, 1, 589826, 0, 1, 589827, 0, 1, 589828, 0, 1, 589829, 0, 1, 589830, 0, 1, 589831, 0, 1, 589832, 0, 1, 589833, 0, 1, 589834, 0, 1, 589835, 0, 1, 589836, 0, 1, 589837, 0, 1, 589838, 0, 1, 589839, 0, 1, 589840, 0, 65538 )

[node name="FloorTileMap" type="TileMap" parent="."]
material = SubResource( 26 )
scale = Vector2( 2, 2 )
z_index = -1
tile_set = SubResource( 12 )
cell_size = Vector2( 32, 32 )
format = 1
tile_data = PoolIntArray( -262146, 1, 65538, -262145, 1, 131072, -327680, 1, 131072, -327679, 1, 131072, -327678, 1, 131072, -327677, 1, 131072, -327676, 1, 131072, -327675, 1, 131072, -327674, 1, 131072, -327673, 1, 131072, -327672, 1, 131072, -327671, 1, 131072, -327670, 1, 131072, -327669, 1, 131072, -327668, 1, 131072, -327667, 1, 131072, -327666, 1, 131072, -327665, 1, 131072, -327664, 1, 4, -196610, 1, 65537, -196609, 1, 0, -262144, 1, 0, -262143, 1, 0, -262142, 1, 0, -262141, 1, 0, -262140, 1, 0, -262139, 1, 0, -262138, 1, 0, -262137, 1, 0, -262136, 1, 0, -262135, 1, 0, -262134, 1, 0, -262133, 1, 0, -262132, 1, 0, -262131, 1, 0, -262130, 1, 0, -262129, 1, 0, -262128, 1, 1, -131074, 1, 65537, -131073, 1, 0, -196608, 1, 0, -196607, 1, 0, -196606, 1, 0, -196605, 1, 0, -196604, 1, 0, -196603, 1, 0, -196602, 1, 0, -196601, 1, 0, -196600, 1, 0, -196599, 1, 0, -196598, 1, 0, -196597, 1, 0, -196596, 1, 0, -196595, 1, 0, -196594, 1, 0, -196593, 1, 0, -196592, 1, 1, -65538, 1, 65537, -65537, 1, 0, -131072, 1, 0, -131071, 1, 0, -131070, 1, 0, -131069, 1, 0, -131068, 1, 0, -131067, 1, 0, -131066, 1, 0, -131065, 1, 0, -131064, 1, 0, -131063, 1, 0, -131062, 1, 0, -131061, 1, 0, -131060, 1, 0, -131059, 1, 0, -131058, 1, 0, -131057, 1, 0, -131056, 1, 1, -2, 1, 65537, -1, 1, 0, -65536, 1, 0, -65535, 1, 0, -65534, 1, 0, -65533, 1, 0, -65532, 1, 0, -65531, 1, 0, -65530, 1, 0, -65529, 1, 0, -65528, 1, 0, -65527, 1, 0, -65526, 1, 0, -65525, 1, 0, -65524, 1, 0, -65523, 1, 0, -65522, 1, 0, -65521, 1, 0, -65520, 1, 1, 65534, 1, 65537, 65535, 1, 0, 0, 1, 0, 1, 1, 0, 2, 1, 0, 3, 1, 0, 4, 1, 0, 5, 1, 0, 6, 1, 0, 7, 1, 0, 8, 1, 0, 9, 1, 0, 10, 1, 0, 11, 1, 0, 12, 1, 0, 13, 1, 0, 14, 1, 0, 15, 1, 0, 16, 1, 1, 131070, 1, 65537, 131071, 1, 0, 65536, 1, 0, 65537, 1, 0, 65538, 1, 0, 65539, 1, 0, 65540, 1, 0, 65541, 1, 0, 65542, 1, 0, 65543, 1, 0, 65544, 1, 0, 65545, 1, 0, 65546, 1, 0, 65547, 1, 0, 65548, 1, 0, 65549, 1, 0, 65550, 1, 0, 65551, 1, 0, 65552, 1, 1, 196606, 1, 65537, 196607, 1, 0, 131072, 1, 0, 131073, 1, 0, 131074, 1, 0, 131075, 1, 0, 131076, 1, 0, 131077, 1, 0, 131078, 1, 0, 131079, 1, 0, 131080, 1, 0, 131081, 1, 0, 131082, 1, 0, 131083, 1, 0, 131084, 1, 0, 131085, 1, 0, 131086, 1, 0, 131087, 1, 0, 131088, 1, 1, 262142, 1, 65537, 262143, 1, 0, 196608, 1, 0, 196609, 1, 0, 196610, 1, 0, 196611, 1, 0, 196612, 1, 0, 196613, 1, 0, 196614, 1, 0, 196615, 1, 0, 196616, 1, 0, 196617, 1, 0, 196618, 1, 0, 196619, 1, 0, 196620, 1, 0, 196621, 1, 0, 196622, 1, 0, 196623, 1, 0, 196624, 1, 1, 327678, 1, 65537, 327679, 1, 0, 262144, 1, 0, 262145, 1, 0, 262146, 1, 0, 262147, 1, 0, 262148, 1, 0, 262149, 1, 0, 262150, 1, 0, 262151, 1, 0, 262152, 1, 0, 262153, 1, 0, 262154, 1, 0, 262155, 1, 0, 262156, 1, 0, 262157, 1, 0, 262158, 1, 0, 262159, 1, 0, 262160, 1, 1, 393214, 1, 65537, 393215, 1, 0, 327680, 1, 0, 327681, 1, 0, 327682, 1, 0, 327683, 1, 0, 327684, 1, 0, 327685, 1, 0, 327686, 1, 0, 327687, 1, 0, 327688, 1, 0, 327689, 1, 0, 327690, 1, 0, 327691, 1, 0, 327692, 1, 0, 327693, 1, 0, 327694, 1, 0, 327695, 1, 0, 327696, 1, 1, 458750, 1, 65537, 458751, 1, 0, 393216, 1, 0, 393217, 1, 0, 393218, 1, 0, 393219, 1, 0, 393220, 1, 0, 393221, 1, 0, 393222, 1, 0, 393223, 1, 0, 393224, 1, 0, 393225, 1, 0, 393226, 1, 0, 393227, 1, 0, 393228, 1, 0, 393229, 1, 0, 393230, 1, 0, 393231, 1, 0, 393232, 1, 1, 524286, 1, 65537, 524287, 1, 0, 458752, 1, 0, 458753, 1, 0, 458754, 1, 0, 458755, 1, 0, 458756, 1, 0, 458757, 1, 0, 458758, 1, 0, 458759, 1, 0, 458760, 1, 0, 458761, 1, 0, 458762, 1, 0, 458763, 1, 0, 458764, 1, 0, 458765, 1, 0, 458766, 1, 0, 458767, 1, 0, 458768, 1, 1, 589822, 1, 65537, 589823, 1, 0, 524288, 1, 0, 524289, 1, 0, 524290, 1, 0, 524291, 1, 0, 524292, 1, 0, 524293, 1, 0, 524294, 1, 0, 524295, 1, 0, 524296, 1, 0, 524297, 1, 0, 524298, 1, 0, 524299, 1, 0, 524300, 1, 0, 524301, 1, 0, 524302, 1, 0, 524303, 1, 0, 524304, 1, 1, 655358, 1, 3, 655359, 1, 65536, 589824, 1, 65536, 589825, 1, 65536, 589826, 1, 65536, 589827, 1, 65536, 589828, 1, 65536, 589829, 1, 65536, 589830, 1, 65536, 589831, 1, 65536, 589832, 1, 65536, 589833, 1, 65536, 589834, 1, 65536, 589835, 1, 65536, 589836, 1, 65536, 589837, 1, 65536, 589838, 1, 65536, 589839, 1, 65536, 589840, 1, 2 )

[node name="Gem" parent="." instance=ExtResource( 8 )]
position = Vector2( 179, 43 )

[node name="PlayerWithUI" parent="." instance=ExtResource( 1 )]
position = Vector2( 229, -18 )

[node name="TargetDummy2" parent="." instance=ExtResource( 5 )]
position = Vector2( 941, 105 )

[node name="TargetDummy5" parent="." instance=ExtResource( 5 )]
position = Vector2( 353, 8 )

[node name="TargetDummy3" parent="." instance=ExtResource( 5 )]
position = Vector2( 932, 284 )

[node name="TargetDummy4" parent="." instance=ExtResource( 5 )]
position = Vector2( 1002, 482 )

[node name="TargetDummy" parent="." instance=ExtResource( 5 )]
position = Vector2( 898, -86 )

[node name="Zombie" parent="." instance=ExtResource( 6 )]
position = Vector2( -5, -19 )

[node name="WorldEnvironment" type="WorldEnvironment" parent="."]
environment = ExtResource( 7 )
