; Engine configuration file.
; It's best edited using the editor UI and not directly,
; since the parameters that go here are not all obvious.
;
; Format:
;   [section] ; section goes between []
;   param=value ; assign values to parameters

config_version=4

_global_script_classes=[ {
"base": "Leaf",
"class": "ActionLeaf",
"language": "GDScript",
"path": "res://addons/beehave/nodes/leaves/action.gd"
}, {
"base": "Decorator",
"class": "AlwaysFailDecorator",
"language": "GDScript",
"path": "res://addons/beehave/nodes/decorators/failer.gd"
}, {
"base": "Decorator",
"class": "AlwaysSucceedDecorator",
"language": "GDScript",
"path": "res://addons/beehave/nodes/decorators/succeeder.gd"
}, {
"base": "BeehaveTree",
"class": "BeehaveNode",
"language": "GDScript",
"path": "res://addons/beehave/nodes/beehave_node.gd"
}, {
"base": "BeehaveTree",
"class": "BeehaveRoot",
"language": "GDScript",
"path": "res://addons/beehave/nodes/beehave_root.gd"
}, {
"base": "Node",
"class": "BeehaveTree",
"language": "GDScript",
"path": "res://addons/beehave/nodes/beehave_tree.gd"
}, {
"base": "ConditionLeaf",
"class": "CanSeePlayerCondition",
"language": "GDScript",
"path": "res://enemies/behaviours/CanSeePlayer.gd"
}, {
"base": "ActionLeaf",
"class": "ChaseTargetAction",
"language": "GDScript",
"path": "res://enemies/behaviours/ChaseTarget.gd"
}, {
"base": "BeehaveNode",
"class": "Composite",
"language": "GDScript",
"path": "res://addons/beehave/nodes/composites/composite.gd"
}, {
"base": "Leaf",
"class": "ConditionLeaf",
"language": "GDScript",
"path": "res://addons/beehave/nodes/leaves/condition.gd"
}, {
"base": "BeehaveNode",
"class": "Decorator",
"language": "GDScript",
"path": "res://addons/beehave/nodes/decorators/decorator.gd"
}, {
"base": "Decorator",
"class": "InverterDecorator",
"language": "GDScript",
"path": "res://addons/beehave/nodes/decorators/inverter.gd"
}, {
"base": "Reference",
"class": "IsBeeingPenetratedCondition",
"language": "GDScript",
"path": "res://enemies/behaviours/IsBeeingPenetrated.gd"
}, {
"base": "ConditionLeaf",
"class": "IsDeadCondition",
"language": "GDScript",
"path": "res://enemies/behaviours/IsDeadCondition.gd"
}, {
"base": "BeehaveNode",
"class": "Leaf",
"language": "GDScript",
"path": "res://addons/beehave/nodes/leaves/leaf.gd"
}, {
"base": "Decorator",
"class": "LimiterDecorator",
"language": "GDScript",
"path": "res://addons/beehave/nodes/decorators/limiter.gd"
}, {
"base": "ActionLeaf",
"class": "MeleeAttackAction",
"language": "GDScript",
"path": "res://enemies/behaviours/MeleeAttack.gd"
}, {
"base": "Composite",
"class": "SelectorComposite",
"language": "GDScript",
"path": "res://addons/beehave/nodes/composites/selector.gd"
}, {
"base": "Composite",
"class": "SelectorStarComposite",
"language": "GDScript",
"path": "res://addons/beehave/nodes/composites/selector_star.gd"
}, {
"base": "Composite",
"class": "SequenceComposite",
"language": "GDScript",
"path": "res://addons/beehave/nodes/composites/sequence.gd"
}, {
"base": "Composite",
"class": "SequenceStarComposite",
"language": "GDScript",
"path": "res://addons/beehave/nodes/composites/sequence_star.gd"
}, {
"base": "ActionLeaf",
"class": "UpdateBloodParticlesAction",
"language": "GDScript",
"path": "res://enemies/behaviours/UpdateBloodParticle.gd"
} ]
_global_script_class_icons={
"ActionLeaf": "res://addons/beehave/icons/action.svg",
"AlwaysFailDecorator": "res://addons/beehave/icons/fail.svg",
"AlwaysSucceedDecorator": "res://addons/beehave/icons/succeed.svg",
"BeehaveNode": "res://addons/beehave/icons/action.svg",
"BeehaveRoot": "res://addons/beehave/icons/tree.svg",
"BeehaveTree": "",
"CanSeePlayerCondition": "",
"ChaseTargetAction": "",
"Composite": "res://addons/beehave/icons/category_composite.svg",
"ConditionLeaf": "res://addons/beehave/icons/condition.svg",
"Decorator": "res://addons/beehave/icons/category_decorator.svg",
"InverterDecorator": "res://addons/beehave/icons/inverter.svg",
"IsBeeingPenetratedCondition": "",
"IsDeadCondition": "",
"Leaf": "res://addons/beehave/icons/action.svg",
"LimiterDecorator": "res://addons/beehave/icons/limiter.svg",
"MeleeAttackAction": "",
"SelectorComposite": "res://addons/beehave/icons/selector.svg",
"SelectorStarComposite": "res://addons/beehave/icons/selector_star.svg",
"SequenceComposite": "res://addons/beehave/icons/sequencer.svg",
"SequenceStarComposite": "res://addons/beehave/icons/sequencer_star.svg",
"UpdateBloodParticlesAction": ""
}

[application]

config/name="Barcis_archery"
run/main_scene="res://MainWorld.tscn"
config/icon="res://player/spear/spear_flying.png"

[autoload]

Globals="*res://Globals.gd"
CameraController="*res://CameraController.gd"

[editor_plugins]

enabled=PoolStringArray( "res://addons/beehave/plugin.cfg" )

[importer_defaults]

texture={
"compress/bptc_ldr": 0,
"compress/hdr_mode": 0,
"compress/lossy_quality": 0.7,
"compress/mode": 0,
"compress/normal_map": 0,
"detect_3d": false,
"flags/anisotropic": false,
"flags/filter": false,
"flags/mipmaps": false,
"flags/repeat": 0,
"flags/srgb": 2,
"process/HDR_as_SRGB": false,
"process/fix_alpha_border": true,
"process/invert_color": false,
"process/normal_map_invert_y": false,
"process/premult_alpha": false,
"size_limit": 0,
"stream": false,
"svg/scale": 1.0
}

[input]

move_up={
"deadzone": 0.5,
"events": [ Object(InputEventKey,"resource_local_to_scene":false,"resource_name":"","device":0,"alt":false,"shift":false,"control":false,"meta":false,"command":false,"pressed":false,"scancode":87,"physical_scancode":0,"unicode":0,"echo":false,"script":null)
 ]
}
move_down={
"deadzone": 0.5,
"events": [ Object(InputEventKey,"resource_local_to_scene":false,"resource_name":"","device":0,"alt":false,"shift":false,"control":false,"meta":false,"command":false,"pressed":false,"scancode":83,"physical_scancode":0,"unicode":0,"echo":false,"script":null)
 ]
}
move_left={
"deadzone": 0.5,
"events": [ Object(InputEventKey,"resource_local_to_scene":false,"resource_name":"","device":0,"alt":false,"shift":false,"control":false,"meta":false,"command":false,"pressed":false,"scancode":65,"physical_scancode":0,"unicode":0,"echo":false,"script":null)
 ]
}
move_right={
"deadzone": 0.5,
"events": [ Object(InputEventKey,"resource_local_to_scene":false,"resource_name":"","device":0,"alt":false,"shift":false,"control":false,"meta":false,"command":false,"pressed":false,"scancode":68,"physical_scancode":0,"unicode":0,"echo":false,"script":null)
 ]
}
shoot={
"deadzone": 0.5,
"events": [ Object(InputEventMouseButton,"resource_local_to_scene":false,"resource_name":"","device":0,"alt":false,"shift":false,"control":false,"meta":false,"command":false,"button_mask":0,"position":Vector2( 0, 0 ),"global_position":Vector2( 0, 0 ),"factor":1.0,"button_index":1,"pressed":false,"doubleclick":false,"script":null)
 ]
}
interact={
"deadzone": 0.5,
"events": [ Object(InputEventKey,"resource_local_to_scene":false,"resource_name":"","device":0,"alt":false,"shift":false,"control":false,"meta":false,"command":false,"pressed":false,"scancode":69,"physical_scancode":0,"unicode":0,"echo":false,"script":null)
 ]
}
restart={
"deadzone": 0.5,
"events": [ Object(InputEventKey,"resource_local_to_scene":false,"resource_name":"","device":0,"alt":false,"shift":false,"control":false,"meta":false,"command":false,"pressed":false,"scancode":82,"physical_scancode":0,"unicode":0,"echo":false,"script":null)
 ]
}
dash={
"deadzone": 0.5,
"events": [ Object(InputEventKey,"resource_local_to_scene":false,"resource_name":"","device":0,"alt":false,"shift":false,"control":false,"meta":false,"command":false,"pressed":false,"scancode":32,"physical_scancode":0,"unicode":0,"echo":false,"script":null)
 ]
}
throw_gemstone={
"deadzone": 0.5,
"events": [ Object(InputEventMouseButton,"resource_local_to_scene":false,"resource_name":"","device":0,"alt":false,"shift":false,"control":false,"meta":false,"command":false,"button_mask":0,"position":Vector2( 0, 0 ),"global_position":Vector2( 0, 0 ),"factor":1.0,"button_index":2,"pressed":false,"doubleclick":false,"script":null)
 ]
}

[layer_names]

2d_physics/layer_1="collision"
2d_physics/layer_2="enemy"
2d_physics/layer_3="player_interaction"

[rendering]

2d/snapping/use_gpu_pixel_snap=true
environment/default_clear_color=Color( 0, 0, 0, 1 )
environment/default_environment="res://default_env.tres"
